running
  '/usr/local/lib/R/bin/R --slave --no-restore --no-save --no-restore --file=workflow.R'

[1] FALSE
[[1]]
[[1]]$`1983`
# A tibble: 1,191,742 x 10
   STNID          LON   LAT ELEV_M_SRTM_90m YEAR   YDAY  TEMP   MAX   MIN    RH
   <chr>        <dbl> <dbl>           <dbl> <chr> <dbl> <dbl> <dbl> <dbl> <dbl>
 1 014030-99999  4.87  59.3              12 1983      1   6.6   7.7   5.2  80  
 2 014030-99999  4.87  59.3              12 1983      2   4.8   5.2   3.8  66.7
 3 014030-99999  4.87  59.3              12 1983      3   6.2   8.4   3.6  88.9
 4 014030-99999  4.87  59.3              12 1983      4   6.3   7.4   3.4  80  
 5 014030-99999  4.87  59.3              12 1983      5   5.7   6.7   3.4  77.8
 6 014030-99999  4.87  59.3              12 1983      6   6.6   8.8   5.4  70  
 7 014030-99999  4.87  59.3              12 1983      7   4.7   6     3.7  77.8
 8 014030-99999  4.87  59.3              12 1983      8   4.4   6     3.2  87.5
 9 014030-99999  4.87  59.3              12 1983      9   5.3   7.4   2.4  77.8
10 014030-99999  4.87  59.3              12 1983     10   6.4   7.2   2.4  80  
# ... with 1,191,732 more rows


[[2]]
[[2]]$`1984`
# A tibble: 1,245,735 x 10
   STNID          LON   LAT ELEV_M_SRTM_90m YEAR   YDAY  TEMP   MAX   MIN    RH
   <chr>        <dbl> <dbl>           <dbl> <chr> <dbl> <dbl> <dbl> <dbl> <dbl>
 1 014030-99999  4.87  59.3              12 1984      1   4.4   6.6   3.2  75  
 2 014030-99999  4.87  59.3              12 1984      2   2.9   5.2   0.5  75  
 3 014030-99999  4.87  59.3              12 1984      3   4.1   5     2.2  75  
 4 014030-99999  4.87  59.3              12 1984      4   3.3   4.4   1.1  75  
 5 014030-99999  4.87  59.3              12 1984      5   3.9   5.8   1.3  75  
 6 014030-99999  4.87  59.3              12 1984      6   4.8   5.4   2.9  77.8
 7 014030-99999  4.87  59.3              12 1984      7   3.4   4     2.8  87.5
 8 014030-99999  4.87  59.3              12 1984      8   3.3   4     1.8  62.5
 9 014030-99999  4.87  59.3              12 1984      9   0.6   2.3  -0.2  66.7
10 014030-99999  4.87  59.3              12 1984     10   3.9   7    -0.7  87.5
# ... with 1,245,725 more rows


[[3]]
[[3]]$`1985`
# A tibble: 1,253,620 x 10
   STNID          LON   LAT ELEV_M_SRTM_90m YEAR   YDAY  TEMP   MAX   MIN    RH
   <chr>        <dbl> <dbl>           <dbl> <chr> <dbl> <dbl> <dbl> <dbl> <dbl>
 1 014030-99999  4.87  59.3              12 1985      1   2.1   3.2   1    57.1
 2 014030-99999  4.87  59.3              12 1985      2  -0.3   0.6  -0.8  66.7
 3 014030-99999  4.87  59.3              12 1985      3   0.6   3.3  -2    83.3
 4 014030-99999  4.87  59.3              12 1985      4  -2    -0.3  -4    80  
 5 014030-99999  4.87  59.3              12 1985      5  -4.3  -1.6  -5.4  75  
 6 014030-99999  4.87  59.3              12 1985      6  -3.3  -0.2  -6.4  80  
 7 014030-99999  4.87  59.3              12 1985      7  -2.6  -0.5  -6.7  80  
 8 014030-99999  4.87  59.3              12 1985      8   0.2   2.7  -1.8  83.3
 9 014030-99999  4.87  59.3              12 1985      9   0.1   2.8  -2    83.3
10 014030-99999  4.87  59.3              12 1985     10  -0.1   1.2  -1    83.3
# ... with 1,253,610 more rows


[[4]]
[[4]]$`1986`
# A tibble: 1,338,449 x 10
   STNID          LON   LAT ELEV_M_SRTM_90m YEAR   YDAY  TEMP   MAX   MIN    RH
   <chr>        <dbl> <dbl>           <dbl> <chr> <dbl> <dbl> <dbl> <dbl> <dbl>
 1 014030-99999  4.87  59.3              12 1986      1  -1.4  -0.7  -4.7  66.7
 2 014030-99999  4.87  59.3              12 1986      2  -1.3  -0.4  -2    66.7
 3 014030-99999  4.87  59.3              12 1986      3  -2.3  -0.6  -3.4  80  
 4 014030-99999  4.87  59.3              12 1986      4  -4.3  -4    -5    75  
 5 014030-99999  4.87  59.3              12 1986      5  -5    -3.6  -6.2  75  
 6 014030-99999  4.87  59.3              12 1986      6  -3.8  -2.4  -5.4  80  
 7 014030-99999  4.87  59.3              12 1986      7  -2.8  -1.6  -4.4  80  
 8 014030-99999  4.87  59.3              12 1986      8  -4.3  -2.8  -5.4 100  
 9 014030-99999  4.87  59.3              12 1986      9  -2.7  -1.8  -3.9  80  
10 014030-99999  4.87  59.3              12 1986     10  -0.8   1.7  -3.1 100  
# ... with 1,338,439 more rows


[[5]]
[[5]]$`1987`
# A tibble: 1,348,011 x 10
   STNID          LON   LAT ELEV_M_SRTM_90m YEAR   YDAY  TEMP   MAX   MIN    RH
   <chr>        <dbl> <dbl>           <dbl> <chr> <dbl> <dbl> <dbl> <dbl> <dbl>
 1 014030-99999  4.87  59.3              12 1987      1   1.1   2.4  -0.4  85.7
 2 014030-99999  4.87  59.3              12 1987      2  -0.2   1.9  -2.4 100  
 3 014030-99999  4.87  59.3              12 1987      3   1.1   2.7  -0.8  85.7
 4 014030-99999  4.87  59.3              12 1987      4   0.3   1.8  -0.8 100  
 5 014030-99999  4.87  59.3              12 1987      5  -1.2   0.4  -2.2  83.3
 6 014030-99999  4.87  59.3              12 1987      6  -2.4  -1.2  -3    60  
 7 014030-99999  4.87  59.3              12 1987      7  -1.8   0.1  -4.2 100  
 8 014030-99999  4.87  59.3              12 1987      8   3.8   4.6  -2.3 100  
 9 014030-99999  4.87  59.3              12 1987      9  -4.5   3.2  -8.4 100  
10 014030-99999  4.87  59.3              12 1987     10 -12.1  -9.5 -13   100  
# ... with 1,348,001 more rows


[[6]]
[[6]]$`1988`
# A tibble: 1,375,104 x 10
   STNID          LON   LAT ELEV_M_SRTM_90m YEAR   YDAY  TEMP   MAX   MIN    RH
   <chr>        <dbl> <dbl>           <dbl> <chr> <dbl> <dbl> <dbl> <dbl> <dbl>
 1 014030-99999  4.87  59.3              12 1988      1   7.5   8     6.6 100  
 2 014030-99999  4.87  59.3              12 1988      2   7     8     5   100  
 3 014030-99999  4.87  59.3              12 1988      3   5.4   6.6   3.8 100  
 4 014030-99999  4.87  59.3              12 1988      4   4.3   5.4   3.6 100  
 5 014030-99999  4.87  59.3              12 1988      5   4     5.8   2.4 100  
 6 014030-99999  4.87  59.3              12 1988      6   4.6   5.6   3.6  87.5
 7 014030-99999  4.87  59.3              12 1988      7   2.4   4.4   0.5  85.7
 8 014030-99999  4.87  59.3              12 1988      8   3.6   4.6   1.3 100  
 9 014030-99999  4.87  59.3              12 1988      9   6.2   7.8   3.6 100  
10 014030-99999  4.87  59.3              12 1988     10   7.1   7.8   6.4  90  
# ... with 1,375,094 more rows


[[7]]
[[7]]$`1989`
# A tibble: 1,343,861 x 10
   STNID          LON   LAT ELEV_M_SRTM_90m YEAR   YDAY  TEMP   MAX   MIN    RH
   <chr>        <dbl> <dbl>           <dbl> <chr> <dbl> <dbl> <dbl> <dbl> <dbl>
 1 014030-99999  4.87  59.3              12 1989      1   6.9   7.5   6.3 100  
 2 014030-99999  4.87  59.3              12 1989      2   7     7.2   6.7 100  
 3 014030-99999  4.87  59.3              12 1989      3   6.3   6.8   6    90  
 4 014030-99999  4.87  59.3              12 1989      4   6.5   7.2   5.5  90  
 5 014030-99999  4.87  59.3              12 1989      5   5.5   6.6   4.4  88.9
 6 014030-99999  4.87  59.3              12 1989      6   4.8   6.2   3.1  88.9
 7 014030-99999  4.87  59.3              12 1989      7   3.8   4.5   2.8  87.5
 8 014030-99999  4.87  59.3              12 1989      8   6.8   8.4   3   100  
 9 014030-99999  4.87  59.3              12 1989      9   6.6   7.6   6    90  
10 014030-99999  4.87  59.3              12 1989     10   4.6   6     3.4 100  
# ... with 1,343,851 more rows


[[8]]
[[8]]$`1990`
# A tibble: 1,328,683 x 10
   STNID          LON   LAT ELEV_M_SRTM_90m YEAR   YDAY  TEMP   MAX   MIN    RH
   <chr>        <dbl> <dbl>           <dbl> <chr> <dbl> <dbl> <dbl> <dbl> <dbl>
 1 014030-99999  4.87  59.3              12 1990      1   1.3   2.6   0.1  71.4
 2 014030-99999  4.87  59.3              12 1990      2   3.3   4.2   2    87.5
 3 014030-99999  4.87  59.3              12 1990      3   3.8   4.6   3   100  
 4 014030-99999  4.87  59.3              12 1990      4   2.7   3.4   2.2 100  
 5 014030-99999  4.87  59.3              12 1990      5   3.1   3.9   2.5  87.5
 6 014030-99999  4.87  59.3              12 1990      6   5.9   6.8   3.6 100  
 7 014030-99999  4.87  59.3              12 1990      7   6.3   6.8   5.7  90  
 8 014030-99999  4.87  59.3              12 1990      8   6.4   7.2   6    90  
 9 014030-99999  4.87  59.3              12 1990      9   6.3   8     5.5  80  
10 014030-99999  4.87  59.3              12 1990     10   6.9   8.3   5.2  90  
# ... with 1,328,673 more rows


[[9]]
[[9]]$`1991`
# A tibble: 1,309,803 x 10
   STNID          LON   LAT ELEV_M_SRTM_90m YEAR   YDAY  TEMP   MAX   MIN    RH
   <chr>        <dbl> <dbl>           <dbl> <chr> <dbl> <dbl> <dbl> <dbl> <dbl>
 1 014030-99999  4.87  59.3              12 1991      1   4.7   5.8   2.5  88.9
 2 014030-99999  4.87  59.3              12 1991      2   6.1   7.6   1.6 100  
 3 014030-99999  4.87  59.3              12 1991      3   5.4   6.3   4.1  77.8
 4 014030-99999  4.87  59.3              12 1991      4   5     7.2   0.6  77.8
 5 014030-99999  4.87  59.3              12 1991      5   6     7.2   4.4  88.9
 6 014030-99999  4.87  59.3              12 1991      6   4.7   5.6   3.5  88.9
 7 014030-99999  4.87  59.3              12 1991      7   4     5     3    87.5
 8 014030-99999  4.87  59.3              12 1991      8   3.3   3.9   2.4  87.5
 9 014030-99999  4.87  59.3              12 1991      9   2.8   4.2   0.1 100  
10 014030-99999  4.87  59.3              12 1991     10   3.1   4.8   0.5  87.5
# ... with 1,309,793 more rows


[[10]]
[[10]]$`1992`
# A tibble: 1,329,639 x 10
   STNID          LON   LAT ELEV_M_SRTM_90m YEAR   YDAY  TEMP   MAX   MIN    RH
   <chr>        <dbl> <dbl>           <dbl> <chr> <dbl> <dbl> <dbl> <dbl> <dbl>
 1 014030-99999  4.87  59.3              12 1992      1   6.7   7.8   5.8  80  
 2 014030-99999  4.87  59.3              12 1992      2   8.8  10     4    90.9
 3 014030-99999  4.87  59.3              12 1992      3   7     8.6   6    90  
 4 014030-99999  4.87  59.3              12 1992      4   4.1   5.1   2.5  87.5
 5 014030-99999  4.87  59.3              12 1992      5   3.7   5.2   1.9  62.5
 6 014030-99999  4.87  59.3              12 1992      6   6.1   8.7   3.5  88.9
 7 014030-99999  4.87  59.3              12 1992      7   6.5   7.6   4.6  90  
 8 014030-99999  4.87  59.3              12 1992      8   4.8   5.6   3.6  77.8
 9 014030-99999  4.87  59.3              12 1992      9   3.7   5.3   1.6  75  
10 014030-99999  4.87  59.3              12 1992     10   4.8   6.6   2    77.8
# ... with 1,329,629 more rows


[[11]]
[[11]]$`1993`
# A tibble: 1,412,044 x 10
   STNID          LON   LAT ELEV_M_SRTM_90m YEAR   YDAY  TEMP   MAX   MIN    RH
   <chr>        <dbl> <dbl>           <dbl> <chr> <dbl> <dbl> <dbl> <dbl> <dbl>
 1 014030-99999  4.87  59.3              12 1993      1   6.3   6.7   5.2  80  
 2 014030-99999  4.87  59.3              12 1993      2   5.8   6.2   4    77.8
 3 014030-99999  4.87  59.3              12 1993      3   4.6   5.8   2.8  87.5
 4 014030-99999  4.87  59.3              12 1993      4   1.9   2.8   1.2  85.7
 5 014030-99999  4.87  59.3              12 1993      5   4.2   7.8   1    87.5
 6 014030-99999  4.87  59.3              12 1993      6   6.1   6.8   5    77.8
 7 014030-99999  4.87  59.3              12 1993      7   6.2   6.5   4.5  88.9
 8 014030-99999  4.87  59.3              12 1993      8   4.3   6.1   2.4  87.5
 9 014030-99999  4.87  59.3              12 1993      9   5.8   7.4   1.6  88.9
10 014030-99999  4.87  59.3              12 1993     10   5     6.8   2.5  77.8
# ... with 1,412,034 more rows


[[12]]
[[12]]$`1994`
# A tibble: 1,446,018 x 10
   STNID          LON   LAT ELEV_M_SRTM_90m YEAR   YDAY  TEMP   MAX   MIN    RH
   <chr>        <dbl> <dbl>           <dbl> <chr> <dbl> <dbl> <dbl> <dbl> <dbl>
 1 014030-99999  4.87  59.3              12 1994      1   3.2   4.4   0.1  87.5
 2 014030-99999  4.87  59.3              12 1994      2   1.2   2.2   0.4  85.7
 3 014030-99999  4.87  59.3              12 1994      3   1.3   2.1   0.2  71.4
 4 014030-99999  4.87  59.3              12 1994      4   1.1   1.8   0.1  57.1
 5 014030-99999  4.87  59.3              12 1994      5   2.3   3    -0.5  71.4
 6 014030-99999  4.87  59.3              12 1994      6   3.4   4     2    75  
 7 014030-99999  4.87  59.3              12 1994      7   2.1   3     0.6  85.7
 8 014030-99999  4.87  59.3              12 1994      8   2.4   3.7   1    85.7
 9 014030-99999  4.87  59.3              12 1994      9   3.3   4     1.6  87.5
10 014030-99999  4.87  59.3              12 1994     10   3.8   4.3   3    75  
# ... with 1,446,008 more rows


[[13]]
[[13]]$`1995`
# A tibble: 1,445,573 x 10
   STNID          LON   LAT ELEV_M_SRTM_90m YEAR   YDAY  TEMP   MAX   MIN    RH
   <chr>        <dbl> <dbl>           <dbl> <chr> <dbl> <dbl> <dbl> <dbl> <dbl>
 1 014030-99999  4.87  59.3              12 1995      1   2.6   4.2   1.2  85.7
 2 014030-99999  4.87  59.3              12 1995      2   2.2   3.8  -0.8  57.1
 3 014030-99999  4.87  59.3              12 1995      3   0.8   2.2  -0.2  83.3
 4 014030-99999  4.87  59.3              12 1995      4   4.6   5.3   2    87.5
 5 014030-99999  4.87  59.3              12 1995      5   3.6   5     1.6  75  
 6 014030-99999  4.87  59.3              12 1995      6   1.7   2.4   1   100  
 7 014030-99999  4.87  59.3              12 1995      7   4.2   6.3   1.8 100  
 8 014030-99999  4.87  59.3              12 1995      8   6     7.4   3.5 100  
 9 014030-99999  4.87  59.3              12 1995      9   5.4   7.2   2.4  88.9
10 014030-99999  4.87  59.3              12 1995     10   2.9   5.6   1.8  87.5
# ... with 1,445,563 more rows


[[14]]
[[14]]$`1996`
# A tibble: 1,413,793 x 10
   STNID          LON   LAT ELEV_M_SRTM_90m YEAR   YDAY  TEMP   MAX   MIN    RH
   <chr>        <dbl> <dbl>           <dbl> <chr> <dbl> <dbl> <dbl> <dbl> <dbl>
 1 014030-99999  4.87  59.3              12 1996      1  -2.8  -1.7  -3.9  60  
 2 014030-99999  4.87  59.3              12 1996      2  -2.1  -0.6  -4.4  80  
 3 014030-99999  4.87  59.3              12 1996      3  -0.1   0.8  -1.8  83.3
 4 014030-99999  4.87  59.3              12 1996      4  -0.3   0.6  -1.2 100  
 5 014030-99999  4.87  59.3              12 1996      5   1.6   3.1  -1.6  42.9
 6 014030-99999  4.87  59.3              12 1996      6   0.8   1.8  -0.5  83.3
 7 014030-99999  4.87  59.3              12 1996      7   2.4   3.4   1    71.4
 8 014030-99999  4.87  59.3              12 1996      8   4.5   5.4   2.5  87.5
 9 014030-99999  4.87  59.3              12 1996      9   5.3   6.6   4.2  88.9
10 014030-99999  4.87  59.3              12 1996     10   4.9   5.6   3.6  88.9
# ... with 1,413,783 more rows


[[15]]
[[15]]$`1997`
# A tibble: 1,477,489 x 10
   STNID          LON   LAT ELEV_M_SRTM_90m YEAR   YDAY  TEMP   MAX   MIN    RH
   <chr>        <dbl> <dbl>           <dbl> <chr> <dbl> <dbl> <dbl> <dbl> <dbl>
 1 014030-99999  4.87  59.3              12 1997      1   0.3   2.4  -3   100  
 2 014030-99999  4.87  59.3              12 1997      2  -0.3   0.3  -1.4  66.7
 3 014030-99999  4.87  59.3              12 1997      3   0.1   0.6  -0.6  66.7
 4 014030-99999  4.87  59.3              12 1997      4   0.7   2.4  -0.8 100  
 5 014030-99999  4.87  59.3              12 1997      5   1.7   3     0.2  85.7
 6 014030-99999  4.87  59.3              12 1997      6   1     1.5   0    85.7
 7 014030-99999  4.87  59.3              12 1997      7   1.9   2.6   0.5  85.7
 8 014030-99999  4.87  59.3              12 1997      8   2.2   3.2   0.6 100  
 9 014030-99999  4.87  59.3              12 1997      9   0.6   1.4  -0.5 100  
10 014030-99999  4.87  59.3              12 1997     10   1.3   2.4  -0.1  85.7
# ... with 1,477,479 more rows


[[16]]
[[16]]$`1998`
# A tibble: 1,351,902 x 10
   STNID          LON   LAT ELEV_M_SRTM_90m YEAR   YDAY  TEMP   MAX   MIN    RH
   <chr>        <dbl> <dbl>           <dbl> <chr> <dbl> <dbl> <dbl> <dbl> <dbl>
 1 014030-99999  4.87  59.3              12 1998      1   5.4   5.7   5    88.9
 2 014030-99999  4.87  59.3              12 1998      2   5.3   5.7   4.6  88.9
 3 014030-99999  4.87  59.3              12 1998      3   5.9   6.6   4.4  88.9
 4 014030-99999  4.87  59.3              12 1998      4   6.2   7.2   4.8 100  
 5 014030-99999  4.87  59.3              12 1998      5   4.1   5     3   100  
 6 014030-99999  4.87  59.3              12 1998      6   4.3   6     2.5 100  
 7 014030-99999  4.87  59.3              12 1998      7   3.4   4.5   1.8  87.5
 8 014030-99999  4.87  59.3              12 1998      8   3.2   4     2    87.5
 9 014030-99999  4.87  59.3              12 1998      9   4.2   6     3.1 100  
10 014030-99999  4.87  59.3              12 1998     10   7.6   8     4.9 100  
# ... with 1,351,892 more rows


[[17]]
[[17]]$`1999`
# A tibble: 1,354,295 x 10
   STNID          LON   LAT ELEV_M_SRTM_90m YEAR   YDAY  TEMP   MAX   MIN    RH
   <chr>        <dbl> <dbl>           <dbl> <chr> <dbl> <dbl> <dbl> <dbl> <dbl>
 1 014033-99999  3.25  56.6              49 1999      1   7.2     8     7  90  
 2 014033-99999  3.25  56.6              49 1999      2   7.2     9     7  90  
 3 014033-99999  3.25  56.6              49 1999      3   6.9     7     6  90  
 4 014033-99999  3.25  56.6              49 1999      4   7.9     9     5  81.8
 5 014033-99999  3.25  56.6              49 1999      5   7.4     9     5  90  
 6 014033-99999  3.25  56.6              49 1999      6   7.5     9     6 100  
 7 014033-99999  3.25  56.6              49 1999      7   6.4     7     5  80  
 8 014033-99999  3.25  56.6              49 1999      8   4.3     5     3  75  
 9 014033-99999  3.25  56.6              49 1999      9   4.1     5     3  62.5
10 014033-99999  3.25  56.6              49 1999     11   1.9     3     1  71.4
# ... with 1,354,285 more rows


[[18]]
[[18]]$`2000`
# A tibble: 1,626,388 x 10
   STNID          LON   LAT ELEV_M_SRTM_90m YEAR   YDAY  TEMP   MAX   MIN    RH
   <chr>        <dbl> <dbl>           <dbl> <chr> <dbl> <dbl> <dbl> <dbl> <dbl>
 1 014000-99999  3.22  56.6              49 2000      1   7.6   8     7    90  
 2 014000-99999  3.22  56.6              49 2000      2   7.7   8.3   7.3  81.8
 3 014000-99999  3.22  56.6              49 2000      3   7.9   8.9   6.7  81.8
 4 014000-99999  3.22  56.6              49 2000      4   6.7   6.8   6    80  
 5 014000-99999  3.22  56.6              49 2000      5   7     8.1   6.4  80  
 6 014000-99999  3.22  56.6              49 2000      6   7.9   9     6.6  81.8
 7 014000-99999  3.22  56.6              49 2000      7   7.3   8.4   6.5  90  
 8 014000-99999  3.22  56.6              49 2000      8   7.7   8.6   7    72.7
 9 014000-99999  3.22  56.6              49 2000      9   6.3   6.4   6.1  70  
10 014000-99999  3.22  56.6              49 2000     10   6.4   7.1   6    80  
# ... with 1,626,378 more rows


[[19]]
[[19]]$`2001`
# A tibble: 1,540,703 x 10
   STNID          LON   LAT ELEV_M_SRTM_90m YEAR   YDAY  TEMP   MAX   MIN    RH
   <chr>        <dbl> <dbl>           <dbl> <chr> <dbl> <dbl> <dbl> <dbl> <dbl>
 1 014000-99999  3.22  56.6              49 2001      1   5.7   7.4   2.9  88.9
 2 014000-99999  3.22  56.6              49 2001      2   7.4   7.6   7   100  
 3 014000-99999  3.22  56.6              49 2001      3   6.9   7.6   6.3  80  
 4 014000-99999  3.22  56.6              49 2001      4   6.9   7.3   6.3  90  
 5 014000-99999  3.22  56.6              49 2001      5   6.2   6.9   4.9 100  
 6 014000-99999  3.22  56.6              49 2001      6   6.2   6.9   4.3  88.9
 7 014000-99999  3.22  56.6              49 2001      7   6.3   7     5.8  80  
 8 014000-99999  3.22  56.6              49 2001      8   6.8   7.3   6.3  80  
 9 014000-99999  3.22  56.6              49 2001      9   6.1   6.4   5.6  66.7
10 014000-99999  3.22  56.6              49 2001     10   4.8   5.6   4.5  55.6
# ... with 1,540,693 more rows
…
